Introduction to protrusions proteome analysis • protrusionproteome
…
dim(proteins_filtered)

## [1] 5541  107

Making unique identifiers

Uniprot names are protein unique identifiers but are not immediately informative. The associated Gene names are informative, however these are not always unique (i.e Gene.names is not primary key to the proteins_filtered table).

# Are Gene.names primary key to this table?
proteins_filtered %>% group_by(Gene.names) %>% summarize(count= n()) %>% 
  arrange(desc( count)) %>% filter( count > 1)

## `summarise()` ungrouping output (override with `.groups` argument)

## # A tibble: 94 x 2
##    Gene.names count
##    <chr>      <int>
##  1 ""            18
##  2 "PLEC"         6
##  3 "CAST"         4
##  4 "ANXA2"        3
##  5 "HLA-C"        3
##  6 "LSM14B"       3
##  7 "NAP1L1"       3
##  8 "PCBP2"        3
##  9 "ABCE1"        2
## 10 "ABCF1"        2
## # … with 84 more rows
…
